…
> tail(score,6)
# A tibble: 6 x 3
  ID    Calculus English
  <chr> <chr>    <chr>  
1 No.70 95       14     
2 No.71 69       96     
3 No.72 51       100    
4 No.73 37       50     
5 No.74 33       92     
6 No.75 4        37     
> 
> ifelse ("Calculus"<=60 & "English"<=60){
錯誤: 未預期的 '{' in "ifelse ("Calculus"<=60 & "English"<=60){"
>   print(score)
# A tibble: 76 x 3
   ID    Calculus English
   <chr> <chr>    <chr>  
 1 ID    Calculus English
 2 No.1  72       62     
 3 No.2  88       97     
 4 No.3  76       66     
 5 No.4  89       51     
 6 No.5  46       15     
 7 No.6  16       87     
 8 No.7  32       51     
 9 No.8  51       0      
10 No.9  73       1      
# ... with 66 more rows
…
